<?xml version="1.0" encoding="utf-8"?>
<!-- Generator: Adobe Illustrator 19.1.0, SVG Export Plug-In . SVG Version: 6.00 Build 0)  -->
<svg version="1.1" id="Layer_1" xmlns="http://www.w3.org/2000/svg" xmlns:xlink="http://www.w3.org/1999/xlink" x="0px" y="0px"
	 viewBox="0 0 20.3 20.7" style="enable-background:new 0 0 20.3 20.7;" xml:space="preserve">
<style type="text/css">
	.st0{fill:#CDC498;}
	.st1{fill:none;stroke:#CDC498;stroke-width:2;stroke-miterlimit:10;}
	.st2{fill:none;stroke:#AEA059;stroke-miterlimit:10;}
	.st3{fill:#4D4D4D;}
	.st4{fill:none;stroke:#CDC498;stroke-miterlimit:10;}
	.st5{fill:#AEA059;}
	.st6{fill:none;stroke:#CDC498;stroke-width:2;stroke-linecap:square;stroke-miterlimit:10;}
	.st7{fill:none;stroke:#4D4D4D;stroke-width:2.5911;stroke-miterlimit:10;}
</style>
<g>
	<path class="st7" d="M9,14.6L9,14.6c-3.4,0-6.1-2.7-6.1-6.1v0c0-3.3,2.8-6.1,6.1-6.1h0c3.4,0,6.1,2.7,6.1,6.1v0
		c0,2.4-1.4,4.4-3.4,5.4C10.9,14.4,10,14.6,9,14.6z"/>
	<line class="st7" x1="18.7" y1="18.9" x2="12.6" y2="12.8"/>
</g>
</svg>
