<?xml version="1.0" encoding="utf-8"?>
<!-- Generator: Adobe Illustrator 18.1.1, SVG Export Plug-In . SVG Version: 6.00 Build 0)  -->
<!DOCTYPE svg PUBLIC "-//W3C//DTD SVG 1.1//EN" "http://www.w3.org/Graphics/SVG/1.1/DTD/svg11.dtd">
<svg version="1.1" id="Layer_1" xmlns="http://www.w3.org/2000/svg" xmlns:xlink="http://www.w3.org/1999/xlink" x="0px" y="0px"
	 viewBox="22 -119 14 14" enable-background="new 22 -119 14 14" xml:space="preserve">
<g id="toggl_city">
</g>
<g id="info">
	<path fill="#EBE4D6" d="M29-119c-3.8,0-7,3.1-7,7c0,3.8,3.1,7,7,7h0c3.8,0,7-3.1,7-7S32.9-119,29-119z M29.8-108.5h-1.5v-4.5h1.5
		V-108.5z M29-113.8c-0.5,0-0.9-0.4-0.9-0.9c0-0.5,0.4-0.9,0.9-0.9c0.5,0,0.9,0.4,0.9,0.9C29.9-114.1,29.5-113.8,29-113.8z"/>
</g>
</svg>
