<?xml version="1.0" encoding="utf-8"?>
<!-- Generator: Adobe Illustrator 19.1.0, SVG Export Plug-In . SVG Version: 6.00 Build 0)  -->
<svg version="1.1" id="Layer_1" xmlns="http://www.w3.org/2000/svg" xmlns:xlink="http://www.w3.org/1999/xlink" x="0px" y="0px"
	 viewBox="0 0 26.1 18.6" style="enable-background:new 0 0 26.1 18.6;" xml:space="preserve">
<style type="text/css">
	.st0{fill:#CDC498;}
	.st1{fill:none;stroke:#CDC498;stroke-width:2;stroke-miterlimit:10;}
	.st2{fill:none;stroke:#AEA059;stroke-miterlimit:10;}
	.st3{fill:#4D4D4D;}
	.st4{fill:none;stroke:#CDC498;stroke-miterlimit:10;}
	.st5{fill:#AEA059;}
	.st6{fill:none;stroke:#CDC498;stroke-width:2;stroke-linecap:square;stroke-miterlimit:10;}
	.st7{fill:none;stroke:#4D4D4D;stroke-width:2.5911;stroke-miterlimit:10;}
</style>
<g>
	<line class="st6" x1="1.3" y1="1.8" x2="24.7" y2="1.8"/>
	<line class="st6" x1="1.3" y1="9.2" x2="24.7" y2="9.2"/>
	<line class="st6" x1="1.3" y1="16.6" x2="24.7" y2="16.6"/>
</g>
</svg>
